<?xml version="1.0" encoding="utf-8"?>
<!-- Generator: Adobe Illustrator 28.3.0, SVG Export Plug-In . SVG Version: 6.00 Build 0)  -->
<svg version="1.1" id="Layer_1" xmlns="http://www.w3.org/2000/svg" xmlns:xlink="http://www.w3.org/1999/xlink" x="0px" y="0px"
	 viewBox="0 0 300 300" style="enable-background:new 0 0 300 300;" xml:space="preserve">
<style type="text/css">
	.st0{fill:#F76A40;}
	.st1{fill:#FFFFFF;}
</style>
<path d="M249.8,279H50.2C34.1,279,21,265.9,21,249.8V50.2C21,34.1,34.1,21,50.2,21h199.5c16.2,0,29.2,13.1,29.2,29.2v199.5
	C279,265.9,265.9,279,249.8,279z"/>
<g>
	<g>
		<polyline class="st1" points="69.7,189.7 109.5,189.7 109.5,229.4 69.7,229.4 69.7,189.7 		"/>
		<path class="st1" d="M149.2,189.7h25c8.1,0,14.7,6.6,14.7,14.7v25h39.7v-39.7c0-21.9-17.8-39.7-39.7-39.7h-39.7h-39.7v39.7H149.2z
			"/>
		<path class="st1" d="M149.2,110.3h39.7h39.7V70.6h-39.7h-39.7c-43.9,0-79.4,35.6-79.4,79.4h39.7
			C109.5,128.1,127.2,110.3,149.2,110.3"/>
	</g>
</g>
</svg>
